<?xml version="1.0" encoding="utf-8"?>
<!-- Generator: Adobe Illustrator 19.0.1, SVG Export Plug-In . SVG Version: 6.00 Build 0)  -->
<svg version="1.1" id="Шар_1" xmlns="http://www.w3.org/2000/svg" xmlns:xlink="http://www.w3.org/1999/xlink" x="0px" y="0px"
	 viewBox="0 0 14.2 26.1" style="enable-background:new 0 0 14.2 26.1;" xml:space="preserve">
<style type="text/css">
	.st0{fill:#BE6E89;}
</style>
<path class="st0" d="M11.3,13.6h-3c0,4.9,0,11,0,11H3.8c0,0,0-6,0-11H1.7V9.7h2.1V7.2c0-1.8,0.8-4.6,4.5-4.6l3.3,0v3.8
	c0,0-2,0-2.4,0c-0.4,0-1,0.2-1,1.1v2.3h3.4L11.3,13.6z"/>
</svg>
