<?xml version="1.0" encoding="utf-8"?>
<!-- Generator: Adobe Illustrator 18.0.0, SVG Export Plug-In . SVG Version: 6.00 Build 0)  -->
<!DOCTYPE svg PUBLIC "-//W3C//DTD SVG 1.1//EN" "http://www.w3.org/Graphics/SVG/1.1/DTD/svg11.dtd">
<svg version="1.1" id="Слой_1" xmlns="http://www.w3.org/2000/svg" xmlns:xlink="http://www.w3.org/1999/xlink" x="0px" y="0px"
	 viewBox="0 0 85 68" enable-background="new 0 0 85 68" xml:space="preserve">
<path fill="#FFC627" d="M56.2,5.2c6.6,0,12,28,12,62.5h9.6c0-37.2-9.7-67.3-21.6-67.3c-6.8,0-12.9,9.1-16.8,23.2
	c-4-14.2-10-23.2-16.8-23.2C10.6,0.4,0.9,30.5,0.9,67.7h9.6c0-34.5,5.4-62.5,12-62.5c6.6,0,12,25.8,12,57.7h9.6
	C44.2,31,49.6,5.2,56.2,5.2"/>
<path fill="#FFC627" d="M82.2,65.2h0.5c0.4,0,0.7,0,0.7-0.5c0-0.4-0.3-0.4-0.6-0.4h-0.6V65.2z M81.8,63.9h1.1c0.7,0,1,0.3,1,0.8
	c0,0.5-0.3,0.7-0.7,0.8l0.8,1.2h-0.5l-0.8-1.2h-0.5v1.2h-0.4V63.9z M82.7,67.4c1.1,0,2-0.9,2-2.1c0-1.2-0.9-2-2-2c-1.1,0-2,0.9-2,2
	C80.7,66.5,81.6,67.4,82.7,67.4 M82.7,62.9c1.3,0,2.4,1,2.4,2.4c0,1.4-1.1,2.4-2.4,2.4c-1.3,0-2.4-1-2.4-2.4
	C80.3,63.9,81.4,62.9,82.7,62.9"/>
</svg>
