<?xml version="1.0" encoding="utf-8"?>
<!-- Generator: Adobe Illustrator 19.0.1, SVG Export Plug-In . SVG Version: 6.00 Build 0)  -->
<svg version="1.1" id="Шар_1" xmlns="http://www.w3.org/2000/svg" xmlns:xlink="http://www.w3.org/1999/xlink" x="0px" y="0px"
	 viewBox="0 0 18 23" style="enable-background:new 0 0 18 23;" xml:space="preserve">
<style type="text/css">
	.st0{fill:#BE6E89;}
</style>
<path class="st0" d="M15.1,12.5c-0.7-0.7-1.5-1.2-2.6-1.4v-0.1c0.8-0.3,1.3-0.8,1.8-1.5C14.7,8.7,15,8,15,7.1c0-0.8-0.2-1.4-0.5-2
	c-0.3-0.6-0.8-1-1.4-1.4c-0.6-0.3-1.2-0.5-1.9-0.6C10.6,3,9.6,2.9,8.3,2.9H2.1v18h7c1.2,0,2.2-0.1,3-0.3c0.8-0.2,1.5-0.6,2.2-1.1
	c0.6-0.4,1-1,1.3-1.7c0.3-0.7,0.5-1.5,0.5-2.4C16.1,14.2,15.8,13.2,15.1,12.5z M10.3,9c-0.1,0.3-0.4,0.5-0.7,0.7
	C9.2,9.9,8.9,10,8.6,10c-0.3,0-0.8,0-1.6,0H6.5V6.2h0.3c0.8,0,1.4,0,1.8,0c0.4,0,0.7,0.1,1,0.2c0.3,0.1,0.5,0.4,0.7,0.7
	c0.1,0.3,0.2,0.6,0.2,0.9C10.5,8.4,10.4,8.7,10.3,9z M11.3,16.5c-0.2,0.3-0.5,0.6-0.9,0.8c-0.5,0.2-0.9,0.3-1.3,0.3
	c-0.4,0-1.2,0-2.4,0H6.5v-4.5h0.8c0.8,0,1.4,0,1.9,0c0.5,0,0.8,0.1,1.1,0.2c0.4,0.2,0.8,0.4,1,0.7c0.2,0.3,0.3,0.7,0.3,1.3
	C11.6,15.7,11.5,16.1,11.3,16.5z"/>
</svg>
