<?xml version="1.0" standalone="no"?>
<!DOCTYPE svg PUBLIC "-//W3C//DTD SVG 1.1//EN" "http://www.w3.org/Graphics/SVG/1.1/DTD/svg11.dtd">
<svg xmlns="http://www.w3.org/2000/svg">
<metadata>Copyright (C) 2016 by original authors @ fontello.com</metadata>
<defs>
<font id="fontello" horiz-adv-x="1000" >
<font-face font-family="fontello" font-weight="400" font-stretch="normal" units-per-em="1000" ascent="850" descent="-150" />
<missing-glyph horiz-adv-x="1000" />
<glyph glyph-name="sezam_num_0" unicode="&#x30;" d="M498 681c14 12 16 33 4 47-12 14-55 43-69 31-13-12 8-61 20-75 11-14 32-15 45-3z m-14-25c-10-9-11-24-2-34 8-10 39-31 49-22 10 9-5 43-14 54-8 10-23 11-33 2z m-354-165c9 9-6 44-14 54-9 10-24 11-33 2-10-8-11-24-3-34 9-10 40-31 50-22z m380 74c-6-11 20-36 31-42 11-6 24-2 30 9 5 11 1 25-10 31-11 6-46 13-51 2z m-356 6c9 8 10 23 2 32-8 10-37 29-47 21-9-8 6-41 14-51 8-9 22-11 31-2z m385-167c-16 3-32-7-34-23-3-16 8-31 24-34 16-3 62 2 65 17 2 16-39 37-55 40z m-322-434c-11-7-15-23-8-34 6-12 21-16 33-9 11 7 37 35 31 47-7 12-44 3-56-4z m-119 229c10 6 33 34 27 44-7 11-41 1-51-6-10-6-14-21-7-31 7-11 20-14 31-7z m16 132c-13 6-38-25-44-38-6-13 0-28 12-33 13-6 27 0 33 13 6 13 11 53-1 58z m401-130c-17-7-25-25-18-42 6-16 37-57 54-51 16 6 11 57 5 73-7 17-25 26-41 20z m-379-82c11 15 28 63 14 74-14 10-54-20-64-35s-8-34 6-45c14-11 34-8 44 6z m366-24c-12-8-38-41-30-53 8-13 48 0 60 9 11 8 14 25 6 37-8 13-24 16-36 7z m-377-8c-19-13-24-39-12-58 12-19 61-62 79-49 19 13 1 76-12 95-12 19-37 24-55 12z m235-128c-17 4-68 1-72-16-4-17 41-42 58-46 18-4 35 7 39 24 4 17-7 34-25 38z m-185 769c-17 1-32-13-33-31-1-18 11-68 28-69 17-1 34 48 35 65 1 18-12 34-30 35z m-85-325c14 0 25 38 25 52 0 14-11 26-24 26-14 0-25-11-25-25 0-14 10-53 24-53z m350-394c-15-11-47-53-37-68 11-15 60 2 74 13 15 11 19 32 8 47-10 15-31 19-45 8z m-152 734c14 8 19 25 11 39-7 13-25 17-38 9-14-7-45-40-37-53 7-13 50-3 64 5z m98 51c-13 2-52-3-54-16-2-13 33-29 47-31 13-2 26 7 28 20 2 13-8 25-21 27z m127-297c-13-9 4-52 14-65 10-12 29-14 42-4 13 10 16 28 5 40-10 13-48 39-61 29z m-390-110c-6 9-18 10-27 4-8-7-26-31-20-39 6-9 34 2 43 9 8 6 10 18 4 26z m444-71c-12 0-44-7-45-19 0-12 32-23 44-24 12 0 22 9 22 20 0 12-9 22-21 23z m5-60c-10 5-43 11-48 1-5-11 20-34 30-39 11-6 24-1 29 9 5 11 0 24-11 29z" horiz-adv-x="657" />

<glyph glyph-name="sezam_num_1" unicode="&#x31;" d="M190 667c16 10 37 5 46-10 10-16 5-37-10-46-16-10-67-24-77-8-9 15 26 55 41 64z m199-148c7 15 38 51 53 44 15-7 8-54 1-69-7-15-24-21-39-14-15 7-22 24-15 39z m-142 178c6 11 43 3 54-4 12-6 16-21 9-32-6-11-21-15-32-9-12 7-38 33-31 45z m93-28c-15 5-14 50-9 65 5 15 21 23 36 18 15-5 23-21 18-36-5-15-30-52-45-47z m79-53c11 5 24 0 29-11 5-11 0-23-11-28-11-5-44-10-49 1-5 11 20 33 31 38z m-95-687c-3 18 44 41 62 44 18 3 36-9 39-28 3-18-10-35-28-38-18-3-70 4-73 22z m70 220c0 18 15 33 34 33 18-1 33-16 33-35-1-18-17-68-35-68-19 1-33 52-32 70z m58-239c-14 3-22 16-19 30 3 14 17 23 30 20 14-4 49-23 46-37-3-14-43-17-57-13z m-5 106c3 11 13 18 24 16 11-3 18-13 16-24-3-11-18-39-29-37-11 2-13 34-11 45z m-10-10c0-15-13-28-28-27-16 0-28 13-28 28 1 16 14 58 30 57 15 0 27-42 26-58z m4 359c7-3 11-12 7-20-4-8-13-11-20-8-8 4-26 20-23 28 4 7 28 4 36 0z m29-304c-1-8-8-14-17-13-8 1-14 8-13 17 1 8 10 30 18 29 9-1 13-24 12-33z m-23 232c6-12 0-27-12-33-13-6-28-1-34 12-5 12-11 51 1 57 12 6 39-23 45-36z m-16 101c-9-11-25-12-35-3-11 9-12 25-3 35 9 11 42 32 52 23 11-9-5-45-14-55z m-22-205c-13 2-22 15-20 29 3 14 16 23 29 20 14-2 49-20 47-34-3-13-42-18-56-15z m-1 500c7 11 23 14 34 6 12-8 15-24 7-35-8-11-39-36-50-28-12 8 1 45 9 57z m-13 66c2 18 23 66 41 64 19-2 28-54 25-72-2-18-18-31-37-29-18 2-31 18-29 37z" horiz-adv-x="657" />

<glyph glyph-name="sezam_num_2" unicode="&#x32;" d="M422 428c-13-14-36-65-21-78 15-13 62 17 75 32 12 15 11 37-4 50-15 13-37 11-50-4z m-211 296c18-2 69 8 71 25 1 18-46 38-64 40-18 2-34-11-36-29-2-18 11-34 29-36z m329-156c-11 10-29 10-39-1-11-11-31-50-20-61 11-10 49 12 60 23 10 11 10 28-1 39z m-52 53c0-16 43-30 58-30 16-1 29 12 30 27 0 16-12 29-28 30-16 0-59-12-60-27z m-401 13c20-13 47-7 61 13 13 20 33 86 13 100-20 13-73-32-87-52-13-20-7-47 13-61z m298 101c13-7 52-14 59-2 6 13-23 40-35 47-13 6-28 1-34-11-7-13-2-28 10-34z m-148-547c-3-16 7-33 23-37 16-3 33 7 37 23 3 16 1 64-16 68-16 4-40-38-44-54z m-33-39c-9-11-24-50-13-59 12-9 46 15 55 27 9 11 7 28-5 37-11 9-28 7-37-5z m190 184c-13 1-50-6-51-20-1-13 34-27 47-28 13-1 25 9 26 22 1 13-8 25-22 26z m-229-328c10 16 24 68 8 78-16 10-56-26-66-42-10-16-5-37 11-47 16-10 37-5 47 11z m-46-48c-11 6-45 14-51 3-6-11 19-36 30-42 10-5 24-2 29 9 6 11 3 24-8 30z m197 14c3 12-5 23-17 25-12 3-47-1-49-13-2-12 29-28 40-30 12-2 24 6 26 18z m-31-26c-10-2-17-11-16-22 2-10 11-17 21-15 11 1 37 13 36 24-2 10-31 14-41 13z m187 737c15-12 66-35 79-20 12 15-18 62-33 74-15 13-37 11-50-4-13-15-11-37 4-50z m-163-432c10-7 43-18 50-8 7 10-14 37-24 44-10 7-24 5-31-5-7-10-5-24 5-31z m37 490c8 7 9 19 2 27-6 8-32 25-40 18-8-7 4-35 11-43 7-8 19-9 27-2z m215-691c-18 2-36-10-39-29-3-19 5-72 23-75 19-3 42 46 45 65 3 18-10 36-29 39z m-217-83c-11-11-11-29 1-40 11-10 28-10 39 1 11 11 32 50 21 61-11 11-50-11-61-22z m-159 12c-18 3-36-10-39-29-3-18 10-36 28-39 19-3 72 4 75 22 3 19-45 43-64 46z m286 2c-18 5-37-7-41-25-4-19 7-37 26-41 18-5 72-2 76 17 4 18-42 45-61 49z m14 498c-13-8-16-25-7-37 8-12 24-15 37-7 12 9 38 41 30 53-9 12-48-1-60-9z" horiz-adv-x="657" />

<glyph glyph-name="sezam_num_3" unicode="&#x33;" d="M494 277c15 12 17 35 4 49-13 15-60 45-74 33-15-13 8-64 21-79 12-15 35-16 49-3z m-313-318c-11-7-15-22-8-33 6-12 21-16 33-9 11 7 38 35 31 46-7 12-44 3-56-4z m406 235c-14 12-64 34-76 20-12-15 18-60 32-72 15-12 36-10 48 4 12 15 11 36-4 48z m-66-84c-10-12-10-29 2-39 11-10 49-29 60-18 10 11-12 48-24 58-11 10-28 10-38-1z m-443-45c-21-13-26-41-13-61 13-20 66-65 87-52 20 14 0 80-13 100-14 21-41 26-61 13z m276-103c-15 6-33-1-39-15-6-15 0-33 15-39 15-6 61-12 67 3 7 15-29 44-43 51z m97 483c-5 14-20 21-34 16-14-5-47-29-42-43 5-14 46-11 60-7 13 5 21 20 16 34z m42 114c-19 1-35-13-36-32-1-19 11-72 30-73 19-1 37 50 38 69 1 19-13 35-32 36z m-110-212c7 14-29 46-44 52-14 7-32 1-39-14-7-15 0-33 14-40 15-6 62-13 69 2z m-242 272c16 10 2 62-8 78-10 16-31 21-47 11-16-10-21-31-11-47 10-16 50-52 66-42z m370 39c12-2 28 29 30 41 2 12-6 24-18 26-12 2-24-6-26-18-2-12 2-47 14-49z m-51-651c-16-11-50-55-39-71 11-16 65 2 81 13 16 11 19 33 8 49-11 16-34 20-50 9z m-186 367c-4 12-16 18-28 15-11-4-40-23-37-35 4-12 39-11 50-7 12 3 19 16 15 27z m202 211c7-17 60-12 78-5 17 7 26 27 19 44-7 18-27 26-45 19-17-7-59-40-52-58z m-125 170c13 3 48 23 44 36-3 13-42 16-55 13-14-4-22-17-19-30 3-14 17-22 30-19z m-133 24c-11 14-58-5-73-16-14-11-16-32-5-46 11-14 32-17 46-6 14 12 44 53 32 68z m198-57c18-5 72-2 77 17 4 18-43 45-61 49-19 4-37-7-41-25-5-19 7-37 25-41z m109-475c10-8 44-19 51-9 7 10-15 39-25 46-10 7-25 5-32-6-7-10-5-24 6-31z m14-207c-10-2-34-16-30-25 3-9 32-9 42-7 9 3 15 12 11 21-3 9-13 14-23 11z m-263-97c-10-2-34-16-30-25 3-9 32-10 42-7 10 2 15 12 11 20-3 9-13 14-23 12z m9 799c9 3 14 14 12 23-2 10-16 34-25 31-9-4-10-33-7-43 2-9 12-14 20-11z" horiz-adv-x="657" />

<glyph glyph-name="sezam_num_4" unicode="&#x34;" d="M268 202c-4-13-18-21-33-18-14 3-24 16-20 29 3 13 25 45 39 42 15-3 17-40 14-53z m212 507c-5-18-25-29-45-24-21 4-33 22-28 39 4 18 34 63 54 59 20-4 24-56 19-74z m-304-389c-11-16-32-20-48-10-16 10-20 31-10 47 10 16 51 51 67 41 15-10 1-62-9-78z m-70-119c-16-9-37-4-47 12-9 17-4 38 12 47 17 10 69 23 79 6 9-16-28-55-44-65z m324 339c-7 14-13 57 1 63 14 7 43-26 49-40 7-14 1-30-13-37-14-6-31 0-37 14z m-201-40c-3 13 29 33 42 37 13 3 27-4 30-17 4-13-4-27-17-30-13-4-51-3-55 10z m-16-99c-14 0-24 37-24 51 0 13 11 24 24 24 14-1 25-12 25-25-1-13-12-50-25-50z m114-220c-19 0-34 16-34 34 0 19 16 34 35 34 19 0 70-17 70-35 0-19-52-34-71-33z m-42 426c6 10 19 14 30 8 11-6 15-19 9-30-6-10-31-35-42-29-10 6-3 40 3 51z m-126-370c6 10 19 14 30 8 10-5 14-19 8-30-6-10-30-35-41-29-11 6-3 40 3 51z m281 418c2 12 13 20 25 18 12-2 21-13 18-25-2-12-17-43-29-41-12 2-16 36-14 48z m-73-731c-8 17 32 53 49 62 17 8 37 1 46-16 8-17 1-38-16-46-17-8-71-17-79 0z m57 246c0 19 16 34 35 33 19 0 34-16 33-35 0-18-17-70-36-69-18 0-33 52-32 71z m59-244c-13 8-17 25-8 38 8 13 25 17 38 8 12-8 41-41 33-54-9-12-50 0-63 8z m9 90c-1-16-15-29-31-28-17 1-30 15-29 31 1 17 16 61 33 60 16 0 28-46 27-63z m-16 368c8-11 6-27-5-35-12-9-28-7-36 5-9 11-23 49-12 57 12 9 44-15 53-27z m-55 86c-6 14 0 31 15 38 14 7 31 0 38-14 6-15 13-60-2-67-14-6-44 28-51 43z m62-228c-4-18-23-28-40-24-18 5-29 23-24 41 5 18 32 63 50 58 17-5 19-57 14-75z m-101 394c-8-11-24-14-36-7-11 8-15 24-7 36 8 12 39 38 51 30 12-8 0-47-8-59z m151-382c19-1 70-18 70-37-1-18-53-32-72-31-19 0-34 16-33 35 1 19 16 33 35 33z" horiz-adv-x="657" />

<glyph glyph-name="sezam_num_5" unicode="&#x35;" d="M510 348c-13 15-60 45-75 33-14-13 9-64 21-79 13-15 35-16 50-3 15 12 17 35 4 49z m-303-390c-18-2-32-19-30-37 2-19 19-33 37-31 19 2 69 23 67 42-2 18-55 28-74 26z m374 184c14 13 14 35 1 49-13 14-61 42-75 28-13-13 11-62 25-76 13-14 35-14 49-1z m-38-32c-13-9-42-44-33-57 9-13 52 1 65 10 13 9 16 27 7 40-9 13-26 16-39 7z m-458-61c-20-13-26-40-12-61 13-20 66-65 86-51 20 13 0 79-13 100-13 20-40 26-61 12z m299-100c-13-7-17-22-11-34 6-13 22-18 34-11 13 6 41 34 35 46-6 13-46 5-58-1z m-206 465c-4 16-20 26-37 22-16-4-26-20-22-36 3-17 27-58 44-54 16 3 19 51 15 68z m-60 118c-11-9 4-48 13-59 9-12 26-14 37-5 12 9 14 26 5 37-9 12-43 36-55 27z m286-144c-2 19-19 33-37 31-19-2-69-21-68-40 2-19 55-30 74-28 18 1 32 18 31 37z m-230 155c16 10 2 62-8 78-10 16-31 21-47 11-16-10-21-31-11-47 10-16 50-52 66-42z m-21 113c11-6 24-2 30 9 6 10 2 24-9 29-10 6-44 14-50 3-6-10 18-35 29-41z m149 117c-7 10-21 12-31 5-10-7-31-34-24-44 7-10 40 1 50 8 10 7 12 21 5 31z m-24-62c-7 3-29 6-32-1-3-7 14-21 21-24 7-3 15 0 18 7 3 7 0 15-7 18z m189-694c-14-13-16-35-4-50 13-15 36-17 51-4 14 12 45 60 32 74-12 15-64-7-79-20z m-254 344c10-10 45 8 55 18 10 10 11 26 1 36-10 10-26 10-36 0-10-9-29-44-20-54z m104-420c-6-8-19-36-10-42 8-7 33 9 40 18 7 8 6 20-2 27-9 7-21 5-28-3z m208 773c19-3 42 46 45 64 2 19-10 36-29 39-19 3-36-10-39-28-3-19 4-72 23-75z m-166-7c11 11 32 50 20 61-11 11-50-10-61-21-11-11-10-29 1-40 11-11 29-11 40 0z m-201 12c19-3 72 4 75 22 3 19-45 42-64 45-18 3-36-9-39-28-3-18 10-36 28-39z m259-21c18-4 72-1 76 17 5 19-42 45-61 50-18 4-36-7-41-26-4-18 7-36 26-41z m137-413c-12 8-28 5-37-7-8-12-5-29 7-37 12-8 52-21 61-9 8 12-19 45-31 53z" horiz-adv-x="657" />

<glyph glyph-name="sezam_num_6" unicode="&#x36;" d="M461 389c-15-13 8-63 21-78 13-15 35-17 50-4 15 13 16 35 4 50-13 15-60 45-75 32z m-208-425c-19-2-32-19-30-38 2-18 18-32 37-30 19 2 69 23 67 41-2 19-55 29-74 27z m348 233c-13 14-61 41-75 28-14-13 11-62 24-76 14-14 36-14 50-1 14 13 14 35 1 49z m-58-78c-13-9-42-44-33-57 9-13 52 1 65 10 13 9 16 27 7 40-9 13-26 16-39 7z m-106-157c-13-7-17-22-11-35 6-12 22-17 34-10 13 6 41 34 35 46-6 13-46 5-58-1z m-287 638c-12-9 4-47 13-59 9-11 26-13 37-4 11 9 13 25 4 37-9 11-43 35-54 26z m279-204c-1 19-18 33-37 31-18-1-68-21-67-40 2-18 55-29 73-28 19 2 33 19 31 37z m-272 36c16 10 2 62-8 78-10 16-31 21-47 11-16-10-21-31-11-47 10-16 50-52 66-42z m71 161c12 3 12 38 8 50-3 11-15 18-27 15-12-4-18-16-15-28 3-11 22-41 34-37z m156 125c10-8 25-7 33 4 8 10 7 25-4 33-10 8-45 23-53 12-8-10 13-41 24-49z m-187-387c5 8 14 34 6 40-8 5-29-12-35-20-5-7-3-18 4-24 8-5 19-3 25 4z m296-306c-15-12-16-35-4-50 13-15 35-16 50-4 15 13 46 60 33 75-13 15-64-8-79-21z m-219 391c-9-8-28-38-19-47 8-9 39 6 48 14 9 8 10 22 2 31-8 9-22 10-31 2z m91-475c-7-8-19-36-11-42 8-7 33 9 40 18 7 8 6 20-2 27-8 7-21 5-27-3z m130 785c18-2 35 11 38 30 2 18-11 35-30 38-19 2-72-7-74-26-3-18 47-40 66-42z m-216-68c18 3 67 26 64 44-3 19-56 26-75 23-18-3-31-20-28-39 3-18 20-31 39-28z m250-367c-8-12-5-29 7-37 12-8 52-21 60-9 8 12-18 44-30 53-12 8-29 5-37-7z m-396-255c-15-13-17-35-4-50 13-15 60-45 75-32 14 13-9 63-21 78-13 15-36 17-50 4z m-2 90c14 14-11 63-24 76-13 14-35 15-49 2-14-14-15-36-2-50 14-13 61-41 75-28z m-66 158c-13-9-16-27-7-40 9-13 26-16 39-7 13 9 42 44 33 57-9 13-52-1-65-10z m69 61c15 12 17 35 4 50-12 15-35 16-50 4-15-13-45-60-33-75 13-15 64 8 79 21z m-19-252c-13 9-52 22-61 9-8-12 18-44 30-52 13-9 29-6 37 6 9 13 6 29-6 37z" horiz-adv-x="657" />

<glyph glyph-name="sezam_num_7" unicode="&#x37;" d="M341 753c15-10 19-31 9-46-10-15-31-19-46-9-15 10-49 51-38 66 10 16 60 0 75-11z m91-249c12 11 54 33 65 21 12-12-12-53-24-65-12-11-31-10-42 2-12 11-11 30 1 42z m-61 273c10 8 41-13 50-23 8-11 6-26-4-34-10-8-25-6-33 4-8 10-23 44-13 53z m74-80c-12 10 5 51 16 63 10 12 28 14 40 4 12-10 13-28 3-40-10-12-47-37-59-27z m-208-694c18-5 20-58 15-76-4-17-22-28-40-24-18 5-29 23-24 41 4 18 31 63 49 59z m32 146c7 17 27 25 44 18 17-7 25-27 18-44-7-17-41-58-58-51-17 8-11 60-4 77z m-108 588c-12 3-20 15-16 28 3 12 15 19 27 16 12-3 43-22 40-34-3-12-39-13-51-10z m73-3c13 1 23-9 24-21 1-13-9-23-22-24-12-1-47 8-48 20 0 13 34 25 46 25z m0-699c-5 11 1 25 13 29 11 5 25-1 29-13 5-11 8-47-4-52-11-4-33 24-38 36z m176 299c9-13 7-30-6-40-12-9-30-6-39 6-9 12-25 54-12 63 12 10 48-17 57-29z m8 34c-12-6-27-2-34 10-7 13-2 28 10 34 12 7 51 15 58 3 6-13-22-40-34-47z m-118-137c-4 15 5 30 21 34 15 4 30-6 33-21 4-15 1-59-14-63-15-4-37 35-40 50z m182 394c7 15 24 21 39 14 15-7 22-25 15-40-7-16-37-52-52-45-15 8-9 55-2 71z m34 74c9 16 46 54 62 45 16-9 6-60-3-76-9-16-29-23-45-14-16 9-23 29-14 45z m-445-19c3 18 25 66 44 63 18-3 25-55 22-73-3-18-20-31-38-28-18 3-31 20-28 38z" horiz-adv-x="657" />

<glyph glyph-name="sezam_num_8" unicode="&#x38;" d="M283 373c-5-12 0-25 11-30 12-5 48-10 53 2 5 11-22 35-34 40-12 5-25 0-30-12z m123 364c15 1 26 14 24 29-1 15-15 26-29 24-15-1-55-18-53-32 1-15 43-23 58-21z m-255-295c14 13-11 62-25 76-13 14-35 14-49 1-14-13-14-35-1-49 13-14 61-42 75-28z m-44 114c15 11 49 53 39 68-11 16-62-1-78-11-15-11-19-32-9-48 11-15 32-19 48-9z m107 172c12 7 17 22 11 34-7 13-22 18-35 11-12-6-41-34-34-46 6-13 45-5 58 1z m379-590c-15 12-38 10-51-5-12-16-35-68-19-81 15-12 62 19 75 35 13 15 11 38-5 51z m-178 203c15 9 50 46 41 61-9 15-58 3-73-6-15-9-20-28-12-43 9-16 29-21 44-12z m-247-327c-18-7-27-26-20-44 6-18 39-61 57-54 17 7 13 61 7 78-7 18-27 27-44 20z m-29 79c-16 9-54-30-63-46-9-17-3-38 14-47 17-9 37-2 46 15 9 16 20 69 3 78z m276-132c-11 8-26 7-34-4-8-10-6-25 4-33 10-8 45-23 53-12 8 10-13 41-23 49z m27 382c-6-8-15-33-7-39 8-6 29 11 35 19 5 8 4 19-4 24-8 6-19 4-24-4z m-285 310c10 10-10 45-20 55-10 9-26 9-36-1-10-10-10-26 0-36 11-10 46-28 56-18z m130 90c14 5 48 31 43 45-5 14-48 12-62 7-14-6-22-21-16-35 5-15 20-22 35-17z m7-786c-19 3-36-11-38-29-3-19 11-36 29-39 19-2 72 7 75 26 2 18-48 40-66 42z m218 65c-18-3-67-26-64-45 3-19 56-26 75-23 18 3 31 20 28 39-3 19-20 31-39 29z m-289 365c3 15-7 28-22 31-14 2-56-3-58-18-2-14 36-33 50-35 15-2 28 8 30 22z m310 284c15 13 17 35 4 50-13 15-60 45-75 32-14-13 9-63 21-78 13-15 35-17 50-4z m-10-81c-14-13 11-62 24-76 14-14 36-15 50-1 13 13 14 35 1 49-13 14-61 41-75 28z m24-162c12 8 15 26 7 38-9 13-26 16-38 7-13-9-40-42-32-55 9-12 50 1 63 10z m-70-156c8-13 50 1 62 9 13 9 16 26 7 38-8 13-26 16-38 7-13-8-40-42-31-54z m82-108c15 12 45 59 32 74-12 15-64-8-78-20-15-13-17-36-4-50 12-15 35-17 50-4z m-30 484c-7-10-5-23 5-30 11-7 44-18 50-8 7 10-15 37-25 44-10 7-23 4-30-6z m-408-476c5 18-5 38-24 44-19 5-38-5-44-24-5-19-6-75 13-80 19-6 49 41 55 60z m14 63c16 11 50 55 38 71-11 15-63-3-78-14-16-11-19-33-8-49 11-15 33-19 48-8z m65 112c-12-5-17-17-13-29 4-11 17-17 28-12 12 4 39 25 35 36-4 12-39 9-50 5z" horiz-adv-x="657" />

<glyph glyph-name="sezam_num_9" unicode="&#x39;" d="M219 277c15 12-8 63-21 78-13 15-35 16-50 3-14-12-16-35-3-49 12-15 59-45 74-32z m190 460c15 1 25 14 24 29-2 15-15 26-30 24-15-1-54-18-53-32 2-15 44-23 59-21z m-299-218c-13 14-35 15-49 2-14-13-15-36-2-49 14-14 61-42 75-29 14 14-11 63-24 76z m-15 48c13 9 41 44 32 57-9 13-52-1-65-10-13-9-16-27-7-40 9-13 27-16 40-7z m121 161c13 7 18 22 11 34-6 13-22 18-34 11-12-6-41-34-35-46 7-13 46-5 58 1z m273-563c-17-1-28-47-28-64 1-17 15-30 32-29 17 1 30 15 29 32 0 16-16 62-33 61z m-201 90c19 2 69 22 67 40-1 19-54 30-73 28-19-1-33-18-31-37 2-18 18-32 37-31z m215-1c-17-7-26-26-19-44 6-18 39-61 57-54 17 7 13 61 7 78-7 18-27 27-45 20z m-68-160c-11-3-12-38-8-50 3-11 15-18 27-15 12 4 19 16 15 28-3 11-22 41-34 37z m-117-118c-10 8-25 7-33-3-9-11-7-26 3-34 11-8 45-23 54-12 8 10-14 41-24 49z m154 407c-5-8-14-34-6-39 8-6 29 11 35 19 5 8 3 18-5 24-7 5-18 4-24-4z m114-100c-7 5-18 3-24-5-5-7-14-33-6-39 8-5 29 12 35 19 5 8 3 19-5 25z m-430 380c12 10 14 28 4 40-11 12-28 13-40 3-12-10-37-47-26-59 10-12 51 6 62 16z m233-337c-10-9-10-22-2-32 8-9 22-9 31-1 9 8 27 37 19 46-8 9-39-5-48-13z m-100 417c14 5 49 31 44 45-5 14-48 12-63 7-14-6-21-21-16-35 5-15 21-22 35-17z m-86-782c-19 2-36-11-38-30-3-18 11-35 30-38 18-2 71 7 74 26 2 18-47 40-66 42z m190 68c-19-3-67-26-64-44 2-19 56-26 74-23 19 2 32 20 29 39-3 18-20 31-39 28z m-273 377c-12 8-52 21-60 9-8-12 18-45 30-53 12-8 29-5 37 7 8 12 5 29-7 37z m401 248c14 13 16 35 3 50-13 15-60 45-74 32-15-13 8-64 21-78 12-15 35-17 50-4z m-11-73c-14-14 11-63 25-77 13-13 35-14 49-1 14 13 14 35 1 49-13 14-61 42-75 29z m45-111c-15-10-48-51-37-66 10-15 60 1 75 12 15 10 19 31 8 46-10 15-31 19-46 8z m-36-119c-15-13-17-35-4-50 13-15 35-17 50-4 15 13 46 60 33 74-13 15-64-7-79-20z m3 282c-7-10-5-24 6-31 10-6 43-17 50-7 6 10-16 37-26 44-10 7-23 4-30-6z" horiz-adv-x="657" />
</font>
</defs>
</svg>